01/Apr/2022 01:09:51 PM - login - INFO - Wait for two-factor authentication render:1
01/Apr/2022 01:09:53 PM - login - WARNING - Can't Clickable'
01/Apr/2022 01:09:54 PM - login - WARNING - Can't Clickable'
01/Apr/2022 01:09:55 PM - login - INFO - Wait for count_duo_pass:1
01/Apr/2022 01:09:56 PM - login - INFO - Wait for count_duo_pass:2
01/Apr/2022 01:09:57 PM - login - INFO - Wait for count_duo_pass:3
01/Apr/2022 01:09:58 PM - login - INFO - Wait for count_duo_pass:4
01/Apr/2022 01:09:59 PM - login - INFO - Wait for count_duo_pass:5
01/Apr/2022 01:10:00 PM - login - INFO - Wait for count_duo_pass:6
01/Apr/2022 01:10:06 PM - login - INFO - Login to QIS is success!!!
01/Apr/2022 01:10:14 PM - login - DEBUG - Main Page:CDwindow-518FA8E5EC092A9EB0508109A8CE0467
01/Apr/2022 01:10:17 PM - extract_data_excel - INFO -   Site Received Serial#  ... Case Owner
0           DTY25240027  ...   wlongsid
1           DTY252200E1  ...   wlongsid
2           DTY2524001L  ...   wlongsid

[3 rows x 5 columns]
01/Apr/2022 01:10:17 PM - extract_data_excel - INFO - Number of rows >>> 3
01/Apr/2022 01:10:17 PM - extract_data_excel - DEBUG - FA-0527504{'DTY25240027': ['Send for Root Cause - Normal', '_x000D_\nERROR_COUNT_LANE_d    = 786420 Failed ()_x000D_\nERROR_COUNT_LANE_c    = 786420 Failed ()_x000D_\nERROR_COUNT_LANE_b    = 786420 Failed ()_x000D_\nERROR_COUNT_LANE_a    = 786420 Failed ()_x000D_\nBER_LANE_d    = 0.0000004813593 Failed ()_x000D_\nBER_LANE_c    = 0.0000004813593 Failed ()_x000D_\nBER_LANE_b    = 0.0000004813593 Failed ()_x000D_\nBER_LANE_a    = 0.0000004813593 Failed ()', 'wlongsid'], 'DTY252200E1': ['Send for Root Cause - Normal', '_x000D_\nERROR_COUNT_LANE_d    = 786420 Failed ()_x000D_\nERROR_COUNT_LANE_a    = 786420 Failed ()_x000D_\nBER_LANE_d    = 0.000000481351 Failed ()_x000D_\nBER_LANE_a    = 0.000000481351 Failed ()', 'wlongsid'], 'DTY2524001L': ['Send for Root Cause - Normal', '_x000D_\nERROR_COUNT_LANE_d    = 786420 Failed ()_x000D_\nERROR_COUNT_LANE_b    = 65535 Failed ()_x000D_\nERROR_COUNT_LANE_a    = 786420 Failed ()_x000D_\nBER_LANE_d    = 0.0000004813388 Failed ()_x000D_\nBER_LANE_b    = 0.00000004011119 Failed ()_x000D_\nBER_LANE_a    = 0.0000004813388 Failed ()', 'wlongsid']}
01/Apr/2022 01:10:17 PM - extract_data_excel - INFO - FA Case number >>> 1 Cases
01/Apr/2022 01:10:17 PM - dispose_affected_items - INFO - FA Case >>> FA-0527504
01/Apr/2022 01:10:26 PM - dispose_affected_items - DEBUG - 6
01/Apr/2022 01:10:26 PM - dispose_affected_items - INFO - Exact rows >>> 6 Rows number >>> 12
01/Apr/2022 01:10:26 PM - dispose_affected_items - DEBUG - <selenium.webdriver.remote.webelement.WebElement (session="e8fcb2e7f0f8519e93335345ca0e448b", element="aff07549-9ee9-4036-9dc0-e74aa6717a9c")>
01/Apr/2022 01:10:26 PM - dispose_affected_items - INFO - FA FLAG >>>  
01/Apr/2022 01:10:26 PM - dispose_affected_items - INFO - Serial Number >>> DTY25240027
01/Apr/2022 01:10:26 PM - dispose_affected_items - INFO - Dispose to >>> Send for Root Cause - Normal
01/Apr/2022 01:10:34 PM - dispose_affected_items - DEBUG - <selenium.webdriver.remote.webelement.WebElement (session="e8fcb2e7f0f8519e93335345ca0e448b", element="0b602c2b-28b7-4592-adaa-196ac2faa93c")>
01/Apr/2022 01:10:34 PM - dispose_affected_items - INFO - FA FLAG >>>  
01/Apr/2022 01:10:34 PM - dispose_affected_items - INFO - Serial Number >>> DTY2524001L
01/Apr/2022 01:10:34 PM - dispose_affected_items - INFO - Dispose to >>> Send for Root Cause - Normal
01/Apr/2022 01:10:40 PM - dispose_affected_items - DEBUG - <selenium.webdriver.remote.webelement.WebElement (session="e8fcb2e7f0f8519e93335345ca0e448b", element="ba2ce592-03de-44e1-9f59-88e7f80f139c")>
01/Apr/2022 01:10:40 PM - dispose_affected_items - INFO - FA FLAG >>>  
01/Apr/2022 01:10:40 PM - dispose_affected_items - INFO - Serial Number >>> DTY252200E1
01/Apr/2022 01:10:40 PM - dispose_affected_items - INFO - Dispose to >>> Send for Root Cause - Normal
