06/Jun/2022 03:53:58 PM - login - INFO - Wait for two-factor authentication render:1
06/Jun/2022 03:53:59 PM - login - INFO - Wait for two-factor authentication render:2
06/Jun/2022 03:54:00 PM - login - INFO - Wait for two-factor authentication render:3
06/Jun/2022 03:54:01 PM - login - INFO - Wait for two-factor authentication render:4
06/Jun/2022 03:54:02 PM - login - INFO - Wait for two-factor authentication render:5
06/Jun/2022 03:54:03 PM - login - INFO - Wait for two-factor authentication render:6
06/Jun/2022 03:54:04 PM - login - INFO - Wait for two-factor authentication render:7
06/Jun/2022 03:54:05 PM - login - INFO - Wait for two-factor authentication render:8
06/Jun/2022 03:54:06 PM - login - INFO - Wait for two-factor authentication render:9
06/Jun/2022 03:54:07 PM - login - INFO - Wait for two-factor authentication render:10
06/Jun/2022 03:54:08 PM - login - INFO - Wait for two-factor authentication render:11
06/Jun/2022 03:54:09 PM - login - INFO - Wait for two-factor authentication render:12
06/Jun/2022 03:54:10 PM - login - INFO - Wait for two-factor authentication render:13
06/Jun/2022 03:54:11 PM - login - INFO - Wait for two-factor authentication render:14
06/Jun/2022 03:54:12 PM - login - INFO - Wait for two-factor authentication render:15
06/Jun/2022 03:54:13 PM - login - INFO - Wait for two-factor authentication render:16
06/Jun/2022 03:54:15 PM - <module> - CRITICAL - Traceback (most recent call last):
  File "C:\Users\wlongsid\OneDrive - Cisco\Documents\DEV\PY\qit_disposition_affected_items\main.py", line 1234, in <module>
    run.main()
  File "C:\Users\wlongsid\OneDrive - Cisco\Documents\DEV\PY\qit_disposition_affected_items\main.py", line 1205, in main
    self.login()
  File "C:\Users\wlongsid\OneDrive - Cisco\Documents\DEV\PY\qit_disposition_affected_items\main.py", line 95, in login
    while (self.driver.title != "Two-Factor Authentication"):
  File "C:\Users\wlongsid\AppData\Local\Programs\Python\Python310\lib\site-packages\selenium\webdriver\remote\webdriver.py", line 447, in title
    resp = self.execute(Command.GET_TITLE)
  File "C:\Users\wlongsid\AppData\Local\Programs\Python\Python310\lib\site-packages\selenium\webdriver\remote\webdriver.py", line 422, in execute
    response = self.command_executor.execute(driver_command, params)
  File "C:\Users\wlongsid\AppData\Local\Programs\Python\Python310\lib\site-packages\selenium\webdriver\remote\remote_connection.py", line 421, in execute
    return self._request(command_info[0], url, body=data)
  File "C:\Users\wlongsid\AppData\Local\Programs\Python\Python310\lib\site-packages\selenium\webdriver\remote\remote_connection.py", line 443, in _request
    resp = self._conn.request(method, url, body=body, headers=headers)
  File "C:\Users\wlongsid\AppData\Local\Programs\Python\Python310\lib\site-packages\urllib3\request.py", line 74, in request
    return self.request_encode_url(
  File "C:\Users\wlongsid\AppData\Local\Programs\Python\Python310\lib\site-packages\urllib3\request.py", line 96, in request_encode_url
    return self.urlopen(method, url, **extra_kw)
  File "C:\Users\wlongsid\AppData\Local\Programs\Python\Python310\lib\site-packages\urllib3\poolmanager.py", line 375, in urlopen
    response = conn.urlopen(method, u.request_uri, **kw)
  File "C:\Users\wlongsid\AppData\Local\Programs\Python\Python310\lib\site-packages\urllib3\connectionpool.py", line 703, in urlopen
    httplib_response = self._make_request(
  File "C:\Users\wlongsid\AppData\Local\Programs\Python\Python310\lib\site-packages\urllib3\connectionpool.py", line 449, in _make_request
    six.raise_from(e, None)
  File "<string>", line 3, in raise_from
  File "C:\Users\wlongsid\AppData\Local\Programs\Python\Python310\lib\site-packages\urllib3\connectionpool.py", line 444, in _make_request
    httplib_response = conn.getresponse()
  File "C:\Users\wlongsid\AppData\Local\Programs\Python\Python310\lib\http\client.py", line 1374, in getresponse
    response.begin()
  File "C:\Users\wlongsid\AppData\Local\Programs\Python\Python310\lib\http\client.py", line 318, in begin
    version, status, reason = self._read_status()
  File "C:\Users\wlongsid\AppData\Local\Programs\Python\Python310\lib\http\client.py", line 279, in _read_status
    line = str(self.fp.readline(_MAXLINE + 1), "iso-8859-1")
  File "C:\Users\wlongsid\AppData\Local\Programs\Python\Python310\lib\socket.py", line 705, in readinto
    return self._sock.recv_into(b)
KeyboardInterrupt

