06/Jul/2022 03:19:22 PM - <module> - 1232 - CRITICAL - Traceback (most recent call last):
  File "c:\Users\wlongsid\OneDrive - Cisco\Documents\DEV\PY\qit_disposition_affected_items\main.py", line 1226, in <module>
    run.main()
  File "c:\Users\wlongsid\OneDrive - Cisco\Documents\DEV\PY\qit_disposition_affected_items\main.py", line 1192, in main
    self.login()
  File "c:\Users\wlongsid\OneDrive - Cisco\Documents\DEV\PY\qit_disposition_affected_items\main.py", line 80, in login
    self.driver=webdriver.Chrome()
  File "C:\Users\wlongsid\AppData\Local\Programs\Python\Python310\lib\site-packages\selenium\webdriver\chrome\webdriver.py", line 70, in __init__
    super(WebDriver, self).__init__(DesiredCapabilities.CHROME['browserName'], "goog",
  File "C:\Users\wlongsid\AppData\Local\Programs\Python\Python310\lib\site-packages\selenium\webdriver\chromium\webdriver.py", line 93, in __init__
    RemoteWebDriver.__init__(
  File "C:\Users\wlongsid\AppData\Local\Programs\Python\Python310\lib\site-packages\selenium\webdriver\remote\webdriver.py", line 268, in __init__
    self.start_session(capabilities, browser_profile)
  File "C:\Users\wlongsid\AppData\Local\Programs\Python\Python310\lib\site-packages\selenium\webdriver\remote\webdriver.py", line 359, in start_session
    response = self.execute(Command.NEW_SESSION, parameters)
  File "C:\Users\wlongsid\AppData\Local\Programs\Python\Python310\lib\site-packages\selenium\webdriver\remote\webdriver.py", line 424, in execute
    self.error_handler.check_response(response)
  File "C:\Users\wlongsid\AppData\Local\Programs\Python\Python310\lib\site-packages\selenium\webdriver\remote\errorhandler.py", line 247, in check_response
    raise exception_class(message, screen, stacktrace)
selenium.common.exceptions.WebDriverException: Message: unknown error: Chrome failed to start: exited normally.
  (unknown error: DevToolsActivePort file doesn't exist)
  (The process started from chrome location C:\Program Files\Google\Chrome\Application\chrome.exe is no longer running, so ChromeDriver is assuming that Chrome has crashed.)
Stacktrace:
Backtrace:
	Ordinal0 [0x00F5B8F3+2406643]
	Ordinal0 [0x00EEAF31+1945393]
	Ordinal0 [0x00DDC748+837448]
	Ordinal0 [0x00DF9994+956820]
	Ordinal0 [0x00DF5D71+941425]
	Ordinal0 [0x00E28EE0+1150688]
	Ordinal0 [0x00E28B3A+1149754]
	Ordinal0 [0x00E24096+1130646]
	Ordinal0 [0x00DFE636+976438]
	Ordinal0 [0x00DFF546+980294]
	GetHandleVerifier [0x011C9612+2498066]
	GetHandleVerifier [0x011BC920+2445600]
	GetHandleVerifier [0x00FF4F2A+579370]
	GetHandleVerifier [0x00FF3D36+574774]
	Ordinal0 [0x00EF1C0B+1973259]
	Ordinal0 [0x00EF6688+1992328]
	Ordinal0 [0x00EF6775+1992565]
	Ordinal0 [0x00EFF8D1+2029777]
	BaseThreadInitThunk [0x765BFA29+25]
	RtlGetAppContainerNamedObjectPath [0x77A77A9E+286]
	RtlGetAppContainerNamedObjectPath [0x77A77A6E+238]


