29/Apr/2022 06:38:25 PM - login - INFO - Wait for two-factor authentication render:1
29/Apr/2022 06:38:27 PM - login - WARNING - Can't Clickable'
29/Apr/2022 06:38:28 PM - login - WARNING - Can't Clickable'
29/Apr/2022 06:38:29 PM - login - INFO - Wait for count_duo_pass:1
29/Apr/2022 06:38:30 PM - login - INFO - Wait for count_duo_pass:2
29/Apr/2022 06:38:31 PM - login - INFO - Wait for count_duo_pass:3
29/Apr/2022 06:38:32 PM - login - INFO - Wait for count_duo_pass:4
29/Apr/2022 06:38:33 PM - login - INFO - Wait for count_duo_pass:5
29/Apr/2022 06:38:34 PM - login - INFO - Wait for count_duo_pass:6
29/Apr/2022 06:38:35 PM - login - INFO - Wait for count_duo_pass:7
29/Apr/2022 06:38:36 PM - login - INFO - Wait for count_duo_pass:8
29/Apr/2022 06:38:37 PM - login - INFO - Wait for count_duo_pass:9
29/Apr/2022 06:38:38 PM - login - INFO - Wait for count_duo_pass:10
29/Apr/2022 06:38:39 PM - login - INFO - Wait for count_duo_pass:11
29/Apr/2022 06:38:40 PM - login - INFO - Wait for count_duo_pass:12
29/Apr/2022 06:38:41 PM - login - INFO - Wait for count_duo_pass:13
29/Apr/2022 06:38:43 PM - login - INFO - Wait for count_duo_pass:14
29/Apr/2022 06:38:44 PM - login - INFO - Wait for count_duo_pass:15
29/Apr/2022 06:38:45 PM - login - INFO - Wait for count_duo_pass:16
29/Apr/2022 06:38:48 PM - login - INFO - Login to QIS is success!!!
29/Apr/2022 06:38:56 PM - login - DEBUG - Main Page:CDwindow-A73E97DED53A4F7584ED615C5BAFD44E
29/Apr/2022 06:38:59 PM - extract_data_excel - INFO -   Site Received Serial#       QIT Disposition         FA#                                Problem Description Case Owner            PID  Unnamed: 6  56 Units
0           ACW24341MNG  Send for Replacement  FA-0537659  Send for replacement - NO FAR Required - QSFP-...   wlongsid  QSFP-40G-LR4=         NaN       NaN
29/Apr/2022 06:38:59 PM - extract_data_excel - INFO - Number of rows >>> 1
29/Apr/2022 06:38:59 PM - extract_data_excel - DEBUG - FA-0537659{'ACW24341MNG': ['Send for Replacement', 'Send for replacement - NO FAR Required - QSFP-40G-LR4= Epoxy Rx Defect \n\nPassed', 'wlongsid', 'QSFP-40G-LR4=']}
29/Apr/2022 06:38:59 PM - extract_data_excel - INFO - FA Case number >>> 1 Cases
29/Apr/2022 06:38:59 PM - dispose_affected_items - INFO - FA Case >>> FA-0537659
29/Apr/2022 06:39:06 PM - dispose_affected_items - DEBUG - 2
29/Apr/2022 06:39:06 PM - dispose_affected_items - INFO - Exact rows >>> 2 Rows number >>> 4
29/Apr/2022 06:39:06 PM - dispose_affected_items - DEBUG - <selenium.webdriver.remote.webelement.WebElement (session="df381096f9eb9d11de17763dfa1915e7", element="c5994844-71a6-47e4-be0e-0d0ff67cd1a6")>
29/Apr/2022 06:39:06 PM - dispose_affected_items - INFO - FA FLAG >>>  
29/Apr/2022 06:39:06 PM - dispose_affected_items - INFO - Serial Number >>> ACW24341MNG
29/Apr/2022 06:39:06 PM - dispose_affected_items - INFO - Dispose to >>> Send for Replacement
29/Apr/2022 06:39:06 PM - dispose_affected_items - DEBUG - <selenium.webdriver.remote.webelement.WebElement (session="df381096f9eb9d11de17763dfa1915e7", element="be70046f-3d9f-4131-815a-6effa52aec8d")>
29/Apr/2022 06:39:06 PM - dispose_affected_items - INFO - FA FLAG >>> Yes
29/Apr/2022 06:39:06 PM - dispose_affected_items - INFO - Serial Number >>> ACW24341MNG
29/Apr/2022 06:39:06 PM - dispose_affected_items - INFO - Dispose to >>> Send for Replacement
29/Apr/2022 06:39:10 PM - update_sre_symtom - WARNING - Wait for against click intercepted !!!
29/Apr/2022 06:39:19 PM - update_sre_symtom - DEBUG - No. Of window handles2: 2 >>>  ['CDwindow-A73E97DED53A4F7584ED615C5BAFD44E', 'CDwindow-F3F9B8CC1558BCAD39E7C8C9D42CD48D']
29/Apr/2022 06:39:22 PM - update_sre_symtom - DEBUG - No. Of window handles2: 2 >>>  ['CDwindow-A73E97DED53A4F7584ED615C5BAFD44E', 'CDwindow-E3AC180E9F283AFBBABDD43FE28E5D94']
29/Apr/2022 06:39:22 PM - update_sre_symtom - DEBUG - Window Title: Update Final SRE Symptom Code Category and Sub Category for Standard FA Case >>> ['CDwindow-A73E97DED53A4F7584ED615C5BAFD44E', 'CDwindow-E3AC180E9F283AFBBABDD43FE28E5D94']
29/Apr/2022 06:39:28 PM - update_sre_symtom - WARNING - Button Text: Update
29/Apr/2022 06:39:28 PM - update_sre_symtom - DEBUG - Not found Update Button
29/Apr/2022 06:39:30 PM - update_sre_symtom - DEBUG - ACW24341MNG : Pluggable failed
29/Apr/2022 06:39:36 PM - dispose_affected_items - INFO - Current status of FA-0537659 >>> Pending Closure Approval
29/Apr/2022 06:39:36 PM - main - CRITICAL - {}
