29/Apr/2022 06:55:24 PM - login - INFO - Wait for two-factor authentication render:1
29/Apr/2022 06:55:26 PM - login - WARNING - Can't Clickable'
29/Apr/2022 06:55:27 PM - login - WARNING - Can't Clickable'
29/Apr/2022 06:55:28 PM - login - INFO - Wait for count_duo_pass:1
29/Apr/2022 06:55:29 PM - login - INFO - Wait for count_duo_pass:2
29/Apr/2022 06:55:30 PM - login - INFO - Wait for count_duo_pass:3
29/Apr/2022 06:55:31 PM - login - INFO - Wait for count_duo_pass:4
29/Apr/2022 06:55:32 PM - login - INFO - Wait for count_duo_pass:5
29/Apr/2022 06:55:33 PM - login - INFO - Wait for count_duo_pass:6
29/Apr/2022 06:55:34 PM - login - INFO - Wait for count_duo_pass:7
29/Apr/2022 06:55:54 PM - login - INFO - Login to QIS is success!!!
29/Apr/2022 06:56:49 PM - login - DEBUG - Main Page:CDwindow-03DF9E25325025C7B03857407199A3A9
29/Apr/2022 06:56:51 PM - extract_data_excel - INFO -   Site Received Serial#       QIT Disposition         FA#                                Problem Description Case Owner            PID  Unnamed: 6  56 Units
0           ACW24341MNG  Send for Replacement  FA-0537659  Send for replacement - NO FAR Required - QSFP-...   wlongsid  QSFP-40G-LR4=         NaN       NaN
29/Apr/2022 06:56:51 PM - extract_data_excel - INFO - Number of rows >>> 1
29/Apr/2022 06:56:51 PM - extract_data_excel - DEBUG - FA-0537659{'ACW24341MNG': ['Send for Replacement', 'Send for replacement - NO FAR Required - QSFP-40G-LR4= Epoxy Rx Defect \n\nPassed', 'wlongsid', 'QSFP-40G-LR4=']}
29/Apr/2022 06:56:51 PM - extract_data_excel - INFO - FA Case number >>> 1 Cases
29/Apr/2022 06:56:51 PM - dispose_affected_items - INFO - FA Case >>> FA-0537659
29/Apr/2022 06:56:59 PM - dispose_affected_items - DEBUG - 2
29/Apr/2022 06:56:59 PM - dispose_affected_items - INFO - Exact rows >>> 2 Rows number >>> 4
29/Apr/2022 06:56:59 PM - dispose_affected_items - DEBUG - <selenium.webdriver.remote.webelement.WebElement (session="6a4a96d0deccf052ea00f8a52e010f7f", element="19936f9f-3d32-416e-a430-757d4b43c0d9")>
29/Apr/2022 06:56:59 PM - dispose_affected_items - INFO - FA FLAG >>>  
29/Apr/2022 06:56:59 PM - dispose_affected_items - INFO - Serial Number >>> ACW24341MNG
29/Apr/2022 06:56:59 PM - dispose_affected_items - INFO - Dispose to >>> Send for Replacement
29/Apr/2022 06:56:59 PM - dispose_affected_items - DEBUG - <selenium.webdriver.remote.webelement.WebElement (session="6a4a96d0deccf052ea00f8a52e010f7f", element="9e2088c5-8c5f-49dd-9bda-f1aa377b48b0")>
29/Apr/2022 06:56:59 PM - dispose_affected_items - INFO - FA FLAG >>> Yes
29/Apr/2022 06:56:59 PM - dispose_affected_items - INFO - Serial Number >>> ACW24341MNG
29/Apr/2022 06:56:59 PM - dispose_affected_items - INFO - Dispose to >>> Send for Replacement
29/Apr/2022 06:57:03 PM - update_sre_symtom - WARNING - Wait for against click intercepted !!!
29/Apr/2022 06:57:12 PM - update_sre_symtom - DEBUG - No. Of window handles2: 2 >>>  ['CDwindow-03DF9E25325025C7B03857407199A3A9', 'CDwindow-53A6F1CDAEF92748B5255F79B13ECBBA']
29/Apr/2022 06:57:15 PM - update_sre_symtom - DEBUG - No. Of window handles2: 2 >>>  ['CDwindow-03DF9E25325025C7B03857407199A3A9', 'CDwindow-B8F26352C9795F4A977B899071F251DF']
29/Apr/2022 06:57:15 PM - update_sre_symtom - DEBUG - Window Title: Update Final SRE Symptom Code Category and Sub Category for Standard FA Case >>> ['CDwindow-03DF9E25325025C7B03857407199A3A9', 'CDwindow-B8F26352C9795F4A977B899071F251DF']
29/Apr/2022 06:57:20 PM - update_sre_symtom - WARNING - Wait for SRE page render !!!
29/Apr/2022 06:57:20 PM - update_sre_symtom - WARNING - Wait for SRE page render !!!
29/Apr/2022 06:57:20 PM - update_sre_symtom - WARNING - Wait for SRE page render !!!
29/Apr/2022 06:57:21 PM - update_sre_symtom - WARNING - Wait for SRE page render !!!
29/Apr/2022 06:57:21 PM - update_sre_symtom - WARNING - Wait for SRE page render !!!
29/Apr/2022 06:57:21 PM - update_sre_symtom - WARNING - Wait for SRE page render !!!
29/Apr/2022 06:57:21 PM - update_sre_symtom - WARNING - Wait for SRE page render !!!
29/Apr/2022 06:57:21 PM - update_sre_symtom - WARNING - Wait for SRE page render !!!
29/Apr/2022 06:57:21 PM - update_sre_symtom - WARNING - Wait for SRE page render !!!
29/Apr/2022 06:57:21 PM - update_sre_symtom - WARNING - Wait for SRE page render !!!
29/Apr/2022 06:57:21 PM - update_sre_symtom - WARNING - Wait for SRE page render !!!
29/Apr/2022 06:57:21 PM - update_sre_symtom - WARNING - Wait for SRE page render !!!
29/Apr/2022 06:57:21 PM - update_sre_symtom - WARNING - Wait for SRE page render !!!
29/Apr/2022 06:57:21 PM - update_sre_symtom - WARNING - Wait for SRE page render !!!
29/Apr/2022 06:57:21 PM - update_sre_symtom - WARNING - Wait for SRE page render !!!
29/Apr/2022 06:57:21 PM - update_sre_symtom - WARNING - Wait for SRE page render !!!
29/Apr/2022 06:57:21 PM - update_sre_symtom - WARNING - Wait for SRE page render !!!
29/Apr/2022 06:57:21 PM - update_sre_symtom - WARNING - Wait for SRE page render !!!
29/Apr/2022 06:57:21 PM - update_sre_symtom - WARNING - Wait for SRE page render !!!
29/Apr/2022 06:57:21 PM - update_sre_symtom - WARNING - Wait for SRE page render !!!
29/Apr/2022 06:57:21 PM - update_sre_symtom - WARNING - Wait for SRE page render !!!
29/Apr/2022 06:57:21 PM - update_sre_symtom - WARNING - Wait for SRE page render !!!
29/Apr/2022 06:57:21 PM - update_sre_symtom - WARNING - Wait for SRE page render !!!
29/Apr/2022 06:57:21 PM - update_sre_symtom - WARNING - Wait for SRE page render !!!
29/Apr/2022 06:57:21 PM - update_sre_symtom - WARNING - Wait for SRE page render !!!
29/Apr/2022 06:57:21 PM - update_sre_symtom - WARNING - Wait for SRE page render !!!
29/Apr/2022 06:57:21 PM - update_sre_symtom - WARNING - Wait for SRE page render !!!
29/Apr/2022 06:57:21 PM - update_sre_symtom - WARNING - Wait for SRE page render !!!
29/Apr/2022 06:57:21 PM - update_sre_symtom - WARNING - Wait for SRE page render !!!
29/Apr/2022 06:57:21 PM - update_sre_symtom - WARNING - Wait for SRE page render !!!
29/Apr/2022 06:57:21 PM - update_sre_symtom - WARNING - Wait for SRE page render !!!
29/Apr/2022 06:57:21 PM - update_sre_symtom - WARNING - Wait for SRE page render !!!
29/Apr/2022 06:57:21 PM - update_sre_symtom - WARNING - Wait for SRE page render !!!
29/Apr/2022 06:57:21 PM - update_sre_symtom - WARNING - Wait for SRE page render !!!
29/Apr/2022 06:57:21 PM - update_sre_symtom - WARNING - Wait for SRE page render !!!
29/Apr/2022 06:57:21 PM - update_sre_symtom - WARNING - Wait for SRE page render !!!
29/Apr/2022 06:57:21 PM - update_sre_symtom - WARNING - Wait for SRE page render !!!
29/Apr/2022 06:57:21 PM - update_sre_symtom - WARNING - Wait for SRE page render !!!
29/Apr/2022 06:57:21 PM - update_sre_symtom - WARNING - Wait for SRE page render !!!
29/Apr/2022 06:57:21 PM - update_sre_symtom - WARNING - Wait for SRE page render !!!
29/Apr/2022 06:57:21 PM - update_sre_symtom - WARNING - Wait for SRE page render !!!
29/Apr/2022 06:57:21 PM - update_sre_symtom - WARNING - Wait for SRE page render !!!
29/Apr/2022 06:57:21 PM - update_sre_symtom - WARNING - Wait for SRE page render !!!
29/Apr/2022 06:57:21 PM - update_sre_symtom - WARNING - Wait for SRE page render !!!
29/Apr/2022 06:57:21 PM - update_sre_symtom - WARNING - Wait for SRE page render !!!
29/Apr/2022 06:57:21 PM - update_sre_symtom - WARNING - Wait for SRE page render !!!
29/Apr/2022 06:57:21 PM - update_sre_symtom - WARNING - Wait for SRE page render !!!
29/Apr/2022 06:57:21 PM - update_sre_symtom - WARNING - Wait for SRE page render !!!
29/Apr/2022 06:57:21 PM - update_sre_symtom - WARNING - Wait for SRE page render !!!
29/Apr/2022 06:57:21 PM - update_sre_symtom - WARNING - Wait for SRE page render !!!
29/Apr/2022 06:57:21 PM - update_sre_symtom - WARNING - Wait for SRE page render !!!
29/Apr/2022 06:57:21 PM - update_sre_symtom - WARNING - Wait for SRE page render !!!
29/Apr/2022 06:57:21 PM - update_sre_symtom - WARNING - Wait for SRE page render !!!
29/Apr/2022 06:57:21 PM - update_sre_symtom - WARNING - Wait for SRE page render !!!
29/Apr/2022 06:57:21 PM - update_sre_symtom - WARNING - Wait for SRE page render !!!
29/Apr/2022 06:57:21 PM - update_sre_symtom - WARNING - Wait for SRE page render !!!
29/Apr/2022 06:57:21 PM - update_sre_symtom - WARNING - Wait for SRE page render !!!
29/Apr/2022 06:57:21 PM - update_sre_symtom - WARNING - Wait for SRE page render !!!
29/Apr/2022 06:57:21 PM - update_sre_symtom - WARNING - Wait for SRE page render !!!
29/Apr/2022 06:57:21 PM - update_sre_symtom - WARNING - Wait for SRE page render !!!
29/Apr/2022 06:57:21 PM - update_sre_symtom - WARNING - Wait for SRE page render !!!
29/Apr/2022 06:57:21 PM - update_sre_symtom - WARNING - Wait for SRE page render !!!
29/Apr/2022 06:57:21 PM - update_sre_symtom - WARNING - Wait for SRE page render !!!
29/Apr/2022 06:57:21 PM - update_sre_symtom - WARNING - Wait for SRE page render !!!
29/Apr/2022 06:57:21 PM - update_sre_symtom - WARNING - Wait for SRE page render !!!
29/Apr/2022 06:57:21 PM - update_sre_symtom - WARNING - Wait for SRE page render !!!
29/Apr/2022 06:57:21 PM - update_sre_symtom - WARNING - Wait for SRE page render !!!
29/Apr/2022 06:57:21 PM - update_sre_symtom - WARNING - Wait for SRE page render !!!
29/Apr/2022 06:57:21 PM - update_sre_symtom - WARNING - Wait for SRE page render !!!
29/Apr/2022 06:57:21 PM - update_sre_symtom - WARNING - Wait for SRE page render !!!
29/Apr/2022 06:57:21 PM - update_sre_symtom - WARNING - Wait for SRE page render !!!
29/Apr/2022 06:57:21 PM - update_sre_symtom - WARNING - Wait for SRE page render !!!
29/Apr/2022 06:57:21 PM - update_sre_symtom - WARNING - Wait for SRE page render !!!
29/Apr/2022 06:57:21 PM - update_sre_symtom - WARNING - Wait for SRE page render !!!
29/Apr/2022 06:57:21 PM - update_sre_symtom - WARNING - Wait for SRE page render !!!
29/Apr/2022 06:57:21 PM - update_sre_symtom - WARNING - Wait for SRE page render !!!
29/Apr/2022 06:57:21 PM - update_sre_symtom - WARNING - Wait for SRE page render !!!
29/Apr/2022 06:57:21 PM - update_sre_symtom - WARNING - Wait for SRE page render !!!
29/Apr/2022 06:57:21 PM - update_sre_symtom - WARNING - Wait for SRE page render !!!
29/Apr/2022 06:57:21 PM - update_sre_symtom - WARNING - Wait for SRE page render !!!
29/Apr/2022 06:57:21 PM - update_sre_symtom - WARNING - Wait for SRE page render !!!
29/Apr/2022 06:57:21 PM - update_sre_symtom - WARNING - Wait for SRE page render !!!
29/Apr/2022 06:57:21 PM - update_sre_symtom - WARNING - Wait for SRE page render !!!
29/Apr/2022 06:57:21 PM - update_sre_symtom - WARNING - Wait for SRE page render !!!
29/Apr/2022 06:57:21 PM - update_sre_symtom - WARNING - Wait for SRE page render !!!
29/Apr/2022 06:57:21 PM - update_sre_symtom - WARNING - Wait for SRE page render !!!
29/Apr/2022 06:57:21 PM - update_sre_symtom - WARNING - Wait for SRE page render !!!
29/Apr/2022 06:57:21 PM - update_sre_symtom - WARNING - Wait for SRE page render !!!
29/Apr/2022 06:57:21 PM - update_sre_symtom - WARNING - Wait for SRE page render !!!
29/Apr/2022 06:57:21 PM - update_sre_symtom - WARNING - Wait for SRE page render !!!
29/Apr/2022 06:57:21 PM - update_sre_symtom - WARNING - Wait for SRE page render !!!
29/Apr/2022 06:57:21 PM - update_sre_symtom - WARNING - Wait for SRE page render !!!
29/Apr/2022 06:57:21 PM - update_sre_symtom - WARNING - Wait for SRE page render !!!
29/Apr/2022 06:57:21 PM - update_sre_symtom - WARNING - Wait for SRE page render !!!
29/Apr/2022 06:57:21 PM - update_sre_symtom - WARNING - Wait for SRE page render !!!
29/Apr/2022 06:57:21 PM - update_sre_symtom - WARNING - Wait for SRE page render !!!
29/Apr/2022 06:57:21 PM - update_sre_symtom - WARNING - Wait for SRE page render !!!
29/Apr/2022 06:57:21 PM - update_sre_symtom - WARNING - Wait for SRE page render !!!
29/Apr/2022 06:57:21 PM - update_sre_symtom - WARNING - Wait for SRE page render !!!
29/Apr/2022 06:57:21 PM - update_sre_symtom - WARNING - Wait for SRE page render !!!
29/Apr/2022 06:57:21 PM - update_sre_symtom - WARNING - Wait for SRE page render !!!
29/Apr/2022 06:57:21 PM - update_sre_symtom - WARNING - Wait for SRE page render !!!
29/Apr/2022 06:57:21 PM - update_sre_symtom - WARNING - Wait for SRE page render !!!
29/Apr/2022 06:57:21 PM - update_sre_symtom - WARNING - Wait for SRE page render !!!
29/Apr/2022 06:57:21 PM - update_sre_symtom - WARNING - Wait for SRE page render !!!
29/Apr/2022 06:57:21 PM - update_sre_symtom - WARNING - Wait for SRE page render !!!
29/Apr/2022 06:57:21 PM - update_sre_symtom - WARNING - Wait for SRE page render !!!
29/Apr/2022 06:57:21 PM - update_sre_symtom - WARNING - Wait for SRE page render !!!
29/Apr/2022 06:57:21 PM - update_sre_symtom - WARNING - Wait for SRE page render !!!
29/Apr/2022 06:57:21 PM - update_sre_symtom - WARNING - Wait for SRE page render !!!
29/Apr/2022 06:57:21 PM - update_sre_symtom - WARNING - Wait for SRE page render !!!
29/Apr/2022 06:57:21 PM - update_sre_symtom - WARNING - Wait for SRE page render !!!
29/Apr/2022 06:57:21 PM - update_sre_symtom - WARNING - Wait for SRE page render !!!
29/Apr/2022 06:57:21 PM - update_sre_symtom - WARNING - Wait for SRE page render !!!
29/Apr/2022 06:57:21 PM - update_sre_symtom - WARNING - Wait for SRE page render !!!
29/Apr/2022 06:57:21 PM - update_sre_symtom - WARNING - Wait for SRE page render !!!
29/Apr/2022 06:57:21 PM - update_sre_symtom - WARNING - Wait for SRE page render !!!
29/Apr/2022 06:57:21 PM - update_sre_symtom - WARNING - Wait for SRE page render !!!
29/Apr/2022 06:57:21 PM - update_sre_symtom - WARNING - Wait for SRE page render !!!
29/Apr/2022 06:57:21 PM - update_sre_symtom - WARNING - Wait for SRE page render !!!
29/Apr/2022 06:57:21 PM - update_sre_symtom - WARNING - Wait for SRE page render !!!
29/Apr/2022 06:57:21 PM - update_sre_symtom - WARNING - Wait for SRE page render !!!
29/Apr/2022 06:57:21 PM - update_sre_symtom - WARNING - Wait for SRE page render !!!
29/Apr/2022 06:57:21 PM - update_sre_symtom - WARNING - Wait for SRE page render !!!
29/Apr/2022 06:57:21 PM - update_sre_symtom - WARNING - Wait for SRE page render !!!
29/Apr/2022 06:57:21 PM - update_sre_symtom - WARNING - Wait for SRE page render !!!
29/Apr/2022 06:57:21 PM - update_sre_symtom - WARNING - Wait for SRE page render !!!
29/Apr/2022 06:57:21 PM - update_sre_symtom - WARNING - Wait for SRE page render !!!
29/Apr/2022 06:57:21 PM - update_sre_symtom - WARNING - Wait for SRE page render !!!
29/Apr/2022 06:57:21 PM - update_sre_symtom - WARNING - Wait for SRE page render !!!
29/Apr/2022 06:57:21 PM - update_sre_symtom - WARNING - Wait for SRE page render !!!
29/Apr/2022 06:57:21 PM - update_sre_symtom - WARNING - Wait for SRE page render !!!
29/Apr/2022 06:57:21 PM - update_sre_symtom - WARNING - Wait for SRE page render !!!
29/Apr/2022 06:57:21 PM - update_sre_symtom - WARNING - Wait for SRE page render !!!
29/Apr/2022 06:57:21 PM - update_sre_symtom - WARNING - Wait for SRE page render !!!
29/Apr/2022 06:57:21 PM - update_sre_symtom - WARNING - Wait for SRE page render !!!
29/Apr/2022 06:57:21 PM - update_sre_symtom - WARNING - Wait for SRE page render !!!
29/Apr/2022 06:57:21 PM - update_sre_symtom - WARNING - Wait for SRE page render !!!
29/Apr/2022 06:57:21 PM - update_sre_symtom - WARNING - Wait for SRE page render !!!
29/Apr/2022 06:57:21 PM - update_sre_symtom - WARNING - Wait for SRE page render !!!
29/Apr/2022 06:57:21 PM - update_sre_symtom - WARNING - Wait for SRE page render !!!
29/Apr/2022 06:57:21 PM - update_sre_symtom - WARNING - Wait for SRE page render !!!
29/Apr/2022 06:57:21 PM - update_sre_symtom - WARNING - Wait for SRE page render !!!
29/Apr/2022 06:57:21 PM - update_sre_symtom - WARNING - Wait for SRE page render !!!
29/Apr/2022 06:57:21 PM - update_sre_symtom - WARNING - Wait for SRE page render !!!
29/Apr/2022 06:57:21 PM - update_sre_symtom - WARNING - Wait for SRE page render !!!
29/Apr/2022 06:57:21 PM - update_sre_symtom - WARNING - Wait for SRE page render !!!
29/Apr/2022 06:57:21 PM - update_sre_symtom - WARNING - Wait for SRE page render !!!
29/Apr/2022 06:57:21 PM - update_sre_symtom - WARNING - Wait for SRE page render !!!
29/Apr/2022 06:57:21 PM - update_sre_symtom - WARNING - Wait for SRE page render !!!
29/Apr/2022 06:57:21 PM - update_sre_symtom - WARNING - Wait for SRE page render !!!
29/Apr/2022 06:57:21 PM - update_sre_symtom - WARNING - Wait for SRE page render !!!
29/Apr/2022 06:57:21 PM - update_sre_symtom - WARNING - Wait for SRE page render !!!
29/Apr/2022 06:57:21 PM - update_sre_symtom - WARNING - Wait for SRE page render !!!
29/Apr/2022 06:57:21 PM - update_sre_symtom - WARNING - Wait for SRE page render !!!
29/Apr/2022 06:57:21 PM - update_sre_symtom - WARNING - Wait for SRE page render !!!
29/Apr/2022 06:57:21 PM - update_sre_symtom - WARNING - Wait for SRE page render !!!
29/Apr/2022 06:57:21 PM - update_sre_symtom - WARNING - Wait for SRE page render !!!
29/Apr/2022 06:57:21 PM - update_sre_symtom - WARNING - Wait for SRE page render !!!
29/Apr/2022 06:57:21 PM - update_sre_symtom - WARNING - Wait for SRE page render !!!
29/Apr/2022 06:57:21 PM - update_sre_symtom - WARNING - Wait for SRE page render !!!
29/Apr/2022 06:57:21 PM - update_sre_symtom - WARNING - Wait for SRE page render !!!
29/Apr/2022 06:57:21 PM - update_sre_symtom - WARNING - Wait for SRE page render !!!
29/Apr/2022 06:57:21 PM - update_sre_symtom - WARNING - Wait for SRE page render !!!
29/Apr/2022 06:57:21 PM - update_sre_symtom - WARNING - Wait for SRE page render !!!
29/Apr/2022 06:57:21 PM - update_sre_symtom - WARNING - Wait for SRE page render !!!
29/Apr/2022 06:57:21 PM - update_sre_symtom - WARNING - Wait for SRE page render !!!
29/Apr/2022 06:57:21 PM - update_sre_symtom - WARNING - Wait for SRE page render !!!
29/Apr/2022 06:57:21 PM - update_sre_symtom - WARNING - Wait for SRE page render !!!
29/Apr/2022 06:57:21 PM - update_sre_symtom - WARNING - Wait for SRE page render !!!
29/Apr/2022 06:57:21 PM - update_sre_symtom - WARNING - Wait for SRE page render !!!
29/Apr/2022 06:57:21 PM - update_sre_symtom - WARNING - Wait for SRE page render !!!
29/Apr/2022 06:57:21 PM - update_sre_symtom - WARNING - Wait for SRE page render !!!
29/Apr/2022 06:57:21 PM - update_sre_symtom - WARNING - Wait for SRE page render !!!
29/Apr/2022 06:57:21 PM - update_sre_symtom - WARNING - Wait for SRE page render !!!
29/Apr/2022 06:57:21 PM - update_sre_symtom - WARNING - Wait for SRE page render !!!
29/Apr/2022 06:57:21 PM - update_sre_symtom - WARNING - Wait for SRE page render !!!
29/Apr/2022 06:57:22 PM - update_sre_symtom - WARNING - Wait for SRE page render !!!
29/Apr/2022 06:57:22 PM - update_sre_symtom - WARNING - Wait for SRE page render !!!
29/Apr/2022 06:57:22 PM - update_sre_symtom - WARNING - Wait for SRE page render !!!
29/Apr/2022 06:57:22 PM - update_sre_symtom - WARNING - Wait for SRE page render !!!
29/Apr/2022 06:57:22 PM - update_sre_symtom - WARNING - Wait for SRE page render !!!
29/Apr/2022 06:57:22 PM - update_sre_symtom - WARNING - Wait for SRE page render !!!
29/Apr/2022 06:57:22 PM - update_sre_symtom - WARNING - Wait for SRE page render !!!
29/Apr/2022 06:57:22 PM - update_sre_symtom - WARNING - Wait for SRE page render !!!
29/Apr/2022 06:57:22 PM - update_sre_symtom - WARNING - Wait for SRE page render !!!
29/Apr/2022 06:57:22 PM - update_sre_symtom - WARNING - Wait for SRE page render !!!
29/Apr/2022 06:57:22 PM - update_sre_symtom - WARNING - Wait for SRE page render !!!
29/Apr/2022 06:57:22 PM - update_sre_symtom - WARNING - Wait for SRE page render !!!
29/Apr/2022 06:57:22 PM - update_sre_symtom - WARNING - Wait for SRE page render !!!
29/Apr/2022 06:57:22 PM - update_sre_symtom - WARNING - Wait for SRE page render !!!
29/Apr/2022 06:57:22 PM - update_sre_symtom - WARNING - Wait for SRE page render !!!
29/Apr/2022 06:57:22 PM - update_sre_symtom - WARNING - Wait for SRE page render !!!
29/Apr/2022 06:57:22 PM - update_sre_symtom - WARNING - Wait for SRE page render !!!
29/Apr/2022 06:57:22 PM - update_sre_symtom - WARNING - Wait for SRE page render !!!
29/Apr/2022 06:57:22 PM - update_sre_symtom - WARNING - Wait for SRE page render !!!
29/Apr/2022 06:57:22 PM - update_sre_symtom - WARNING - Wait for SRE page render !!!
29/Apr/2022 06:57:22 PM - update_sre_symtom - WARNING - Wait for SRE page render !!!
29/Apr/2022 06:57:22 PM - update_sre_symtom - WARNING - Wait for SRE page render !!!
29/Apr/2022 06:57:22 PM - update_sre_symtom - WARNING - Wait for SRE page render !!!
29/Apr/2022 06:57:22 PM - update_sre_symtom - WARNING - Wait for SRE page render !!!
29/Apr/2022 06:57:22 PM - update_sre_symtom - WARNING - Wait for SRE page render !!!
29/Apr/2022 06:57:22 PM - update_sre_symtom - WARNING - Wait for SRE page render !!!
29/Apr/2022 06:57:22 PM - update_sre_symtom - WARNING - Wait for SRE page render !!!
29/Apr/2022 06:57:22 PM - update_sre_symtom - WARNING - Wait for SRE page render !!!
29/Apr/2022 06:57:22 PM - update_sre_symtom - WARNING - Wait for SRE page render !!!
29/Apr/2022 06:57:22 PM - update_sre_symtom - WARNING - Wait for SRE page render !!!
29/Apr/2022 06:57:22 PM - update_sre_symtom - WARNING - Wait for SRE page render !!!
29/Apr/2022 06:57:22 PM - update_sre_symtom - WARNING - Wait for SRE page render !!!
29/Apr/2022 06:57:22 PM - update_sre_symtom - WARNING - Wait for SRE page render !!!
29/Apr/2022 06:57:22 PM - update_sre_symtom - WARNING - Wait for SRE page render !!!
29/Apr/2022 06:57:22 PM - update_sre_symtom - WARNING - Wait for SRE page render !!!
29/Apr/2022 06:57:22 PM - update_sre_symtom - WARNING - Wait for SRE page render !!!
29/Apr/2022 06:57:22 PM - update_sre_symtom - WARNING - Wait for SRE page render !!!
29/Apr/2022 06:57:22 PM - update_sre_symtom - WARNING - Wait for SRE page render !!!
29/Apr/2022 06:57:22 PM - update_sre_symtom - WARNING - Wait for SRE page render !!!
29/Apr/2022 06:57:22 PM - update_sre_symtom - WARNING - Wait for SRE page render !!!
29/Apr/2022 06:57:22 PM - update_sre_symtom - WARNING - Wait for SRE page render !!!
29/Apr/2022 06:57:22 PM - update_sre_symtom - WARNING - Wait for SRE page render !!!
29/Apr/2022 06:57:22 PM - update_sre_symtom - WARNING - Wait for SRE page render !!!
29/Apr/2022 06:57:22 PM - update_sre_symtom - WARNING - Wait for SRE page render !!!
29/Apr/2022 06:57:22 PM - update_sre_symtom - WARNING - Wait for SRE page render !!!
29/Apr/2022 06:57:22 PM - update_sre_symtom - WARNING - Wait for SRE page render !!!
29/Apr/2022 06:57:22 PM - update_sre_symtom - WARNING - Wait for SRE page render !!!
29/Apr/2022 06:57:22 PM - update_sre_symtom - WARNING - Wait for SRE page render !!!
29/Apr/2022 06:57:22 PM - update_sre_symtom - WARNING - Wait for SRE page render !!!
29/Apr/2022 06:57:22 PM - update_sre_symtom - WARNING - Wait for SRE page render !!!
29/Apr/2022 06:57:22 PM - update_sre_symtom - WARNING - Wait for SRE page render !!!
29/Apr/2022 06:57:22 PM - update_sre_symtom - WARNING - Wait for SRE page render !!!
29/Apr/2022 06:57:22 PM - update_sre_symtom - WARNING - Wait for SRE page render !!!
29/Apr/2022 06:57:22 PM - update_sre_symtom - WARNING - Wait for SRE page render !!!
29/Apr/2022 06:57:22 PM - update_sre_symtom - WARNING - Wait for SRE page render !!!
29/Apr/2022 06:57:22 PM - update_sre_symtom - WARNING - Wait for SRE page render !!!
29/Apr/2022 06:57:22 PM - update_sre_symtom - WARNING - Wait for SRE page render !!!
29/Apr/2022 06:57:22 PM - update_sre_symtom - WARNING - Wait for SRE page render !!!
29/Apr/2022 06:57:22 PM - update_sre_symtom - WARNING - Wait for SRE page render !!!
29/Apr/2022 06:57:22 PM - update_sre_symtom - WARNING - Wait for SRE page render !!!
29/Apr/2022 06:57:22 PM - update_sre_symtom - WARNING - Wait for SRE page render !!!
29/Apr/2022 06:57:22 PM - update_sre_symtom - WARNING - Wait for SRE page render !!!
29/Apr/2022 06:57:22 PM - update_sre_symtom - WARNING - Wait for SRE page render !!!
29/Apr/2022 06:57:22 PM - update_sre_symtom - WARNING - Wait for SRE page render !!!
29/Apr/2022 06:57:22 PM - update_sre_symtom - WARNING - Wait for SRE page render !!!
29/Apr/2022 06:57:22 PM - update_sre_symtom - WARNING - Wait for SRE page render !!!
29/Apr/2022 06:57:22 PM - update_sre_symtom - WARNING - Wait for SRE page render !!!
29/Apr/2022 06:57:22 PM - update_sre_symtom - WARNING - Wait for SRE page render !!!
29/Apr/2022 06:57:22 PM - update_sre_symtom - WARNING - Wait for SRE page render !!!
29/Apr/2022 06:57:22 PM - update_sre_symtom - WARNING - Wait for SRE page render !!!
29/Apr/2022 06:57:22 PM - update_sre_symtom - WARNING - Wait for SRE page render !!!
29/Apr/2022 06:57:22 PM - update_sre_symtom - WARNING - Wait for SRE page render !!!
29/Apr/2022 06:57:22 PM - update_sre_symtom - WARNING - Wait for SRE page render !!!
29/Apr/2022 06:57:22 PM - update_sre_symtom - WARNING - Wait for SRE page render !!!
29/Apr/2022 06:57:22 PM - update_sre_symtom - WARNING - Wait for SRE page render !!!
29/Apr/2022 06:57:22 PM - update_sre_symtom - WARNING - Wait for SRE page render !!!
29/Apr/2022 06:57:22 PM - update_sre_symtom - WARNING - Wait for SRE page render !!!
29/Apr/2022 06:57:22 PM - update_sre_symtom - WARNING - Wait for SRE page render !!!
29/Apr/2022 06:57:22 PM - update_sre_symtom - WARNING - Wait for SRE page render !!!
29/Apr/2022 06:57:22 PM - update_sre_symtom - WARNING - Wait for SRE page render !!!
29/Apr/2022 06:57:22 PM - update_sre_symtom - WARNING - Wait for SRE page render !!!
29/Apr/2022 06:57:22 PM - update_sre_symtom - WARNING - Wait for SRE page render !!!
29/Apr/2022 06:57:22 PM - update_sre_symtom - WARNING - Wait for SRE page render !!!
29/Apr/2022 06:57:22 PM - update_sre_symtom - WARNING - Wait for SRE page render !!!
29/Apr/2022 06:57:22 PM - update_sre_symtom - WARNING - Wait for SRE page render !!!
29/Apr/2022 06:57:22 PM - update_sre_symtom - WARNING - Wait for SRE page render !!!
29/Apr/2022 06:57:22 PM - update_sre_symtom - WARNING - Wait for SRE page render !!!
29/Apr/2022 06:57:22 PM - update_sre_symtom - WARNING - Wait for SRE page render !!!
29/Apr/2022 06:57:22 PM - update_sre_symtom - WARNING - Wait for SRE page render !!!
29/Apr/2022 06:57:22 PM - update_sre_symtom - WARNING - Wait for SRE page render !!!
29/Apr/2022 06:57:22 PM - update_sre_symtom - WARNING - Wait for SRE page render !!!
29/Apr/2022 06:57:22 PM - update_sre_symtom - WARNING - Wait for SRE page render !!!
29/Apr/2022 06:57:22 PM - update_sre_symtom - WARNING - Wait for SRE page render !!!
29/Apr/2022 06:57:22 PM - update_sre_symtom - WARNING - Wait for SRE page render !!!
29/Apr/2022 06:57:22 PM - update_sre_symtom - WARNING - Wait for SRE page render !!!
29/Apr/2022 06:57:22 PM - update_sre_symtom - WARNING - Wait for SRE page render !!!
29/Apr/2022 06:57:22 PM - update_sre_symtom - WARNING - Wait for SRE page render !!!
29/Apr/2022 06:57:22 PM - update_sre_symtom - WARNING - Wait for SRE page render !!!
29/Apr/2022 06:57:22 PM - update_sre_symtom - WARNING - Wait for SRE page render !!!
29/Apr/2022 06:57:22 PM - update_sre_symtom - WARNING - Wait for SRE page render !!!
29/Apr/2022 06:57:22 PM - update_sre_symtom - WARNING - Wait for SRE page render !!!
29/Apr/2022 06:57:22 PM - update_sre_symtom - WARNING - Wait for SRE page render !!!
29/Apr/2022 06:57:22 PM - update_sre_symtom - WARNING - Wait for SRE page render !!!
29/Apr/2022 06:57:22 PM - update_sre_symtom - WARNING - Wait for SRE page render !!!
29/Apr/2022 06:57:22 PM - update_sre_symtom - WARNING - Wait for SRE page render !!!
29/Apr/2022 06:57:22 PM - update_sre_symtom - WARNING - Wait for SRE page render !!!
29/Apr/2022 06:57:22 PM - update_sre_symtom - WARNING - Wait for SRE page render !!!
29/Apr/2022 06:57:22 PM - update_sre_symtom - WARNING - Wait for SRE page render !!!
29/Apr/2022 06:57:22 PM - update_sre_symtom - WARNING - Wait for SRE page render !!!
29/Apr/2022 06:57:22 PM - update_sre_symtom - WARNING - Wait for SRE page render !!!
29/Apr/2022 06:57:22 PM - update_sre_symtom - WARNING - Wait for SRE page render !!!
29/Apr/2022 06:57:22 PM - update_sre_symtom - WARNING - Wait for SRE page render !!!
29/Apr/2022 06:57:22 PM - update_sre_symtom - WARNING - Wait for SRE page render !!!
29/Apr/2022 06:57:22 PM - update_sre_symtom - WARNING - Wait for SRE page render !!!
29/Apr/2022 06:57:22 PM - update_sre_symtom - WARNING - Wait for SRE page render !!!
29/Apr/2022 06:57:26 PM - update_sre_symtom - WARNING - Wait for SRE page render !!!
