29/Mar/2022 07:29:59 PM - login - INFO - Wait for two-factor authentication render:1
29/Mar/2022 07:30:00 PM - login - WARNING - Can't Clickable'
29/Mar/2022 07:30:02 PM - login - WARNING - Can't Clickable'
29/Mar/2022 07:30:03 PM - login - INFO - Wait for count_duo_pass:1
29/Mar/2022 07:30:04 PM - login - INFO - Wait for count_duo_pass:2
29/Mar/2022 07:30:05 PM - login - INFO - Wait for count_duo_pass:3
29/Mar/2022 07:30:06 PM - login - INFO - Wait for count_duo_pass:4
29/Mar/2022 07:30:07 PM - login - INFO - Wait for count_duo_pass:5
29/Mar/2022 07:30:08 PM - login - INFO - Wait for count_duo_pass:6
29/Mar/2022 07:30:09 PM - login - INFO - Wait for count_duo_pass:7
29/Mar/2022 07:30:10 PM - login - INFO - Wait for count_duo_pass:8
29/Mar/2022 07:30:11 PM - login - INFO - Wait for count_duo_pass:9
29/Mar/2022 07:30:12 PM - login - INFO - Wait for count_duo_pass:10
29/Mar/2022 07:30:13 PM - login - INFO - Wait for count_duo_pass:11
29/Mar/2022 07:30:14 PM - login - INFO - Wait for count_duo_pass:12
29/Mar/2022 07:30:15 PM - login - INFO - Wait for count_duo_pass:13
29/Mar/2022 07:30:16 PM - login - INFO - Wait for count_duo_pass:14
29/Mar/2022 07:30:17 PM - login - INFO - Wait for count_duo_pass:15
29/Mar/2022 07:30:18 PM - login - INFO - Wait for count_duo_pass:16
29/Mar/2022 07:30:19 PM - login - INFO - Wait for count_duo_pass:17
29/Mar/2022 07:30:20 PM - login - INFO - Wait for count_duo_pass:18
29/Mar/2022 07:30:21 PM - login - INFO - Wait for count_duo_pass:19
29/Mar/2022 07:30:22 PM - login - INFO - Wait for count_duo_pass:20
29/Mar/2022 07:30:23 PM - login - INFO - Wait for count_duo_pass:21
29/Mar/2022 07:30:24 PM - login - INFO - Wait for count_duo_pass:22
29/Mar/2022 07:30:25 PM - login - INFO - Wait for count_duo_pass:23
29/Mar/2022 07:30:26 PM - login - INFO - Wait for count_duo_pass:24
29/Mar/2022 07:30:27 PM - login - INFO - Wait for count_duo_pass:25
29/Mar/2022 07:30:33 PM - login - INFO - Login to QIS is success!!!
29/Mar/2022 07:30:45 PM - login - DEBUG - Main Page:CDwindow-78BFDB462F6C63C8D5C150E2D92F212B
29/Mar/2022 07:30:48 PM - extract_data_excel - INFO -    Site Received Serial#               QIT Disposition         FA#                                Problem Description Case Owner
0            DTS2416B420  Send for Root Cause - Normal  FA-0527161  _x000D_\nIDPROM_A_TO_B_COMPARISON_ERRORS   EEP...   wlongsid
1            DTY253705YA  Send for Root Cause - Normal  FA-0528914  SN outside the current quickscreen SN list but...   wlongsid
2            DTS2503B545  Send for Root Cause - Normal  FA-0529177  _x000D_\nSERIAL_NUMBER  A End Incorrect SN A E...   wlongsid
3            INL24171303  Send for Root Cause - Normal  FA-0529392  _x000D_\nERROR_COUNT d  At least one bit error...   wlongsid
4            DTY253000FD  Send for Root Cause - Normal  FA-0530291  Send to DNI for RCA to confirm the known shim ...   wlongsid
5            FNS23470RLN  Send for Root Cause - Normal  FA-0531089  _x000D_\nTX_POWER_LANE_D  TX_POWER_LANE_D  = -...   wlongsid
6            APC2439002B  Send for Root Cause - Normal  FA-0532062  _x000D_\nRX legal frames counters    = 0 Faile...    anuchma
7            DTY253300K2  Send for Root Cause - Normal  FA-0532371  Send to DNI for RCA to confirm the known shim ...   wlongsid
8            DTY2533004B  Send for Root Cause - Normal  FA-0532372  Send to DNI for RCA to confirm the known shim ...   wlongsid
9            SPC2516000W  Send for Root Cause - Normal  FA-0532556  _x000D_\nMODULE_ALARM_STATUS   Rx Power High A...   ywiboons
10           INL24463073  Send for Root Cause - Normal  FA-0533141  _x000D_\nTX_POWER_LANE_A  TX_POWER_LANE_A  = -...   wlongsid
11           OPM24160Q97  Send for Root Cause - Normal  FA-0533146  _x000D_\nTX_POWER    = -66.555696 Failed ()_x0...   ywiboons
12           DTY253000GH  Send for Root Cause - Normal  FA-0533188  Send to DNI for RCA to confirm the known shim ...   wlongsid
13           FLJ2352J01D  Send for Root Cause - Normal  FA-0533620  _x000D_\nTX_POWER_LANE_D  TX_POWER_LANE_D  = -...   wlongsid
14           DTY253000N0  Send for Root Cause - Normal  FA-0533669  Send to DNI for RCA to confirm the known shim ...   wlongsid
15           DTY2536009A  Send for Root Cause - Normal  FA-0534430  Send for root cause - SN outside the current q...   wlongsid
29/Mar/2022 07:30:48 PM - extract_data_excel - INFO - Number of rows >>> 16
29/Mar/2022 07:30:48 PM - extract_data_excel - DEBUG - FA-0527161{'DTS2416B420': ['Send for Root Cause - Normal', '_x000D_\nIDPROM_A_TO_B_COMPARISON_ERRORS   EEPROM Comparision Error: Page LM Byte3, = 1 Failed ()_x000D_\nERROR_COUNT c A End,lane:c Loss of lock,identifier:A End,lane:c = -1 Failed ()_x000D_\nBER c A End,lane:c  = -1.54e-12 Failed ()', 'wlongsid']}
29/Mar/2022 07:30:48 PM - extract_data_excel - DEBUG - FA-0528914{'DTY253705YA': ['Send for Root Cause - Normal', 'SN outside the current quickscreen SN list but could still be exposed to the shim issue. \n\nSend to DNI for RCA to confirm the known shim failure. Rework module with new shim position or provide 8D report if root cause is different.\n\nPassed', 'wlongsid']}
29/Mar/2022 07:30:48 PM - extract_data_excel - DEBUG - FA-0529177{'DTS2503B545': ['Send for Root Cause - Normal', '_x000D_\nSERIAL_NUMBER  A End Incorrect SN A End (EEPROM: \\u0000\\u0000\\u0000\\u0000\\u0000\\u0000\\u0000\\u0000\\u0000\\u0000\\u0000\\u0000\\u0000\\u0000\\u0000\\u0000, Expected: DTS2503B545-A)\\n,identifier:A End = FAIL Failed ()_x000D_\nIDPROM_A_TO_B_COMPARISON_ERRORS   EEPROM Comparision Error: Page LM Byte0, Page LM Byte1, Page LM Byte98, Page LM Byte106, Page LM Byte109, Page LM Byte110, Page LM Byte113, Page UM-0 Byte0, Page UM-0 Byte1, Page UM-0 Byte2, Page UM-0 Byte3, Page UM-0 Byte11, Page UM-0 Byte12, Page UM-0 Byte18, Page UM-0 Byte20, Page UM-0 Byte21, Page UM-0 Byte22, Page UM-0 Byte23, Page UM-0 Byte24, Page UM-0 Byte25, Page UM-0 Byte26, Page UM-0 Byte27, Page UM-0 Byte28, Page UM-0 Byte29, Page UM-0 Byte30, Page UM-0 Byte31, Page UM-0 Byte32, Page UM-0 Byte33, Page UM-0 Byte34, Page UM-0 Byte35, Page UM-0 Byte37, Page UM-0 Byte38, Page UM-0 Byte39, Page UM-0 Byte40, Page UM-0 Byte41, Page UM-0 Byte42, Page UM-0 Byte43, Page UM-0 Byte44, Page UM-0 Byte45, Page UM-0 Byte46, Page UM-0 Byte47, Page UM-0 Byte48, Page UM-0 Byte49, Page UM-0 Byte50, Page UM-0 Byte51, Page UM-0 Byte52, Page UM-0 Byte53, Page UM-0 Byte54, Page UM-0 Byte55, Page UM-0 Byte56, Page UM-0 Byte57, Page UM-0 Byte62, Page UM-0 Byte63, Page UM-0 Byte64, Page UM-0 Byte65, Page UM-0 Byte66, Page UM-0 Byte67, Page UM-0 Byte68, Page UM-0 Byte69, Page UM-0 Byte70, Page UM-0 Byte71, Page UM-0 Byte72, Page UM-0 Byte73, Page UM-0 Byte74, Page UM-0 Byte75, Page UM-0 Byte76, Page UM-0 Byte77, Page UM-0 Byte78, Page UM-0 Byte79, Page UM-0 Byte81, Page UM-0 Byte82, Page UM-0 Byte83, Page UM-0 Byte84, Page UM-0 Byte85, Page UM-0 Byte86, Page UM-0 Byte87, Page UM-0 Byte88, Page UM-0 Byte89, Page UM-0 Byte90, Page UM-0 Byte91, Page UM-0 Byte93, Page UM-0 Byte94, Page UM-0 Byte98, Page UM-2 Byte0, Page UM-2 Byte1, Page UM-2 Byte2, Page UM-2 Byte3, Page UM-2 Byte4, Page UM-2 Byte5, Page UM-2 Byte6, Page UM-2 Byte7, Page UM-2 Byte8, Page UM-2 Byte9, Page UM-2 Byte10, Page UM-2 Byte11, Page UM-2 Byte12, Page UM-2 Byte13, Page UM-2 Byte14, Page UM-2 Byte15, Page UM-2 Byte16, Page UM-2 Byte17, Page UM-2 Byte18, Page UM-2 Byte19, Page UM-2 Byte20, Page UM-2 Byte21, Page UM-2 Byte22, Page UM-2 Byte23, Page UM-2 Byte24, Page UM-2 Byte27, Page UM-2 Byte28, Page UM-2 Byte29, Page UM-2 Byte30, Page UM-2 Byte31, Page UM-2 Byte32, Page UM-2 Byte33, Page UM-2 Byte62, Page UM-2 Byte63, Page UM-2 Byte64, Page UM-2 Byte65, Page UM-2 Byte66, Page UM-2 Byte67, Page UM-2 Byte68, Page UM-2 Byte69, Page UM-2 Byte70, Page UM-2 Byte71, Page UM-2 Byte72, Page UM-2 Byte73, Page UM-2 Byte74, Page UM-2 Byte75, Page UM-2 Byte76, Page UM-2 Byte77, Page UM-2 Byte78, Page UM-2 Byte79, Page UM-2 Byte80, Page UM-2 Byte81, Page UM-2 Byte82, Page UM-2 Byte83, Page UM-2 Byte95, Page UM-2 Byte96, Page UM-2 Byte97, Page UM-2 Byte98, Page UM-2 Byte99, Page UM-2 Byte100, Page UM-2 Byte101, Page UM-2 Byte102, Page UM-2 Byte103, Page UM-2 Byte104, Page UM-2 Byte105, Page UM-3 Byte0, Page UM-3 Byte2, Page UM-3 Byte4, Page UM-3 Byte16, Page UM-3 Byte17, Page UM-3 Byte18, Page UM-3 Byte19, Page UM-3 Byte20, Page UM-3 Byte21, Page UM-3 Byte22, Page UM-3 Byte23, Page UM-3 Byte56, Page UM-3 Byte57, Page UM-3 Byte58, Page UM-3 Byte59, Page UM-3 Byte60, Page UM-3 Byte61, Page UM-3 Byte62, Page UM-3 Byte63, Page UM-3 Byte96, Page UM-3 Byte97, Page UM-3 Byte106, Page UM-3 Byte107, Page UM-3 Byte110, Page UM-3 Byte111, = 173 Failed ()', 'wlongsid']}
29/Mar/2022 07:30:48 PM - extract_data_excel - DEBUG - FA-0529392{'INL24171303': ['Send for Root Cause - Normal', '_x000D_\nERROR_COUNT d  At least one bit error,lane:d = 674463001 Failed ()_x000D_\nBER d   = 4.16e-04 Failed ()', 'wlongsid']}
29/Mar/2022 07:30:48 PM - extract_data_excel - DEBUG - FA-0530291{'DTY253000FD': ['Send for Root Cause - Normal', 'Send to DNI for RCA to confirm the known shim failure and rework shim if it is the same issue. \n\nPassed', 'wlongsid']}
29/Mar/2022 07:30:48 PM - extract_data_excel - DEBUG - FA-0531089{'FNS23470RLN': ['Send for Root Cause - Normal', '_x000D_\nTX_POWER_LANE_D  TX_POWER_LANE_D  = -94.98 Failed ()_x000D_\nTX_POWER_LANE_C  TX_POWER_LANE_C  = -92.82 Failed ()_x000D_\nTX_POWER_LANE_B  TX_POWER_LANE_B  = -93.84 Failed ()_x000D_\nTX_POWER_LANE_A  TX_POWER_LANE_A  = -93.42 Failed ()_x000D_\nMODULE_ALARM_STATUS   RX1 CDR LOL Alarm = FAIL Failed ()_x000D_\nERROR_COUNT d  Counter is full,lane:d = -1 Failed ()_x000D_\nERROR_COUNT c  Counter is full,lane:c = -1 Failed ()_x000D_\nERROR_COUNT b  Counter is full,lane:b = -1 Failed ()_x000D_\nERROR_COUNT a  At least one bit error,lane:a = 2147483647 Failed ()_x000D_\nBER d   = -1.0 Failed ()_x000D_\nBER c   = -1.0 Failed ()_x000D_\nBER b   = -1.0 Failed ()_x000D_\nBER a   = 1.33e-03 Failed ()', 'wlongsid']}
29/Mar/2022 07:30:48 PM - extract_data_excel - DEBUG - FA-0532062{'APC2439002B': ['Send for Root Cause - Normal', '_x000D_\nRX legal frames counters    = 0 Failed ()_x000D_\nMODULE_ALARM_STATUS   TX Power High Warning: 0x10 , TX Power High Alarm: 0x10 , RX Power Low Warning: 0x10 = FAIL Failed ()_x000D_\nDDM_TX_POWER e   = -14.13 Failed ()_x000D_\nDDM_RX_POWER e   = 6.31 Failed ()', 'anuchma']}
29/Mar/2022 07:30:48 PM - extract_data_excel - DEBUG - FA-0532371{'DTY253300K2': ['Send for Root Cause - Normal', 'Send to DNI for RCA to confirm the known shim failure and rework shim if it is the same issue. \n\nPassed', 'wlongsid']}
29/Mar/2022 07:30:48 PM - extract_data_excel - DEBUG - FA-0532372{'DTY2533004B': ['Send for Root Cause - Normal', 'Send to DNI for RCA to confirm the known shim failure and rework shim if it is the same issue. \n\nPassed', 'wlongsid']}
29/Mar/2022 07:30:48 PM - extract_data_excel - DEBUG - FA-0532556{'SPC2516000W': ['Send for Root Cause - Normal', '_x000D_\nMODULE_ALARM_STATUS   Rx Power High Alarm = FAIL Failed ()_x000D_\nERROR_COUNT    = 47576 Failed ()_x000D_\nDDM_RX_POWER_DELTA    = 17.416452 Failed ()_x000D_\nDDM_RX_POWER    = 2.66 Failed ()_x000D_\nBER    = 7.69e-08 Failed ()', 'ywiboons']}
29/Mar/2022 07:30:48 PM - extract_data_excel - DEBUG - FA-0533141{'INL24463073': ['Send for Root Cause - Normal', '_x000D_\nTX_POWER_LANE_A  TX_POWER_LANE_A  = -12.05 Failed ()_x000D_\nERROR_COUNT a  At least one bit error,lane:a = 48389147 Failed ()_x000D_\nBER a   = 3.00e-05 Failed ()', 'wlongsid']}
29/Mar/2022 07:30:48 PM - extract_data_excel - DEBUG - FA-0533146{'OPM24160Q97': ['Send for Root Cause - Normal', '_x000D_\nTX_POWER    = -66.555696 Failed ()_x000D_\nMODULE_ALARM_STATUS   TX Power Low Alarm,TX Bias Low Alarm,LOS Alarm,Rx Power Low Alarm = FAIL Failed ()_x000D_\nERROR_COUNT    = 4294967295 Failed ()_x000D_\nBER    = 6.94e-03 Failed ()', 'ywiboons']}
29/Mar/2022 07:30:48 PM - extract_data_excel - DEBUG - FA-0533188{'DTY253000GH': ['Send for Root Cause - Normal', 'Send to DNI for RCA to confirm the known shim failure and rework shim if it is the same issue. \n\nPassed', 'wlongsid']}
29/Mar/2022 07:30:48 PM - extract_data_excel - DEBUG - FA-0533620{'FLJ2352J01D': ['Send for Root Cause - Normal', '_x000D_\nTX_POWER_LANE_D  TX_POWER_LANE_D  = -101.33 Failed ()_x000D_\nTX_POWER_LANE_C  TX_POWER_LANE_C  = -102.72 Failed ()_x000D_\nTX_POWER_LANE_B  TX_POWER_LANE_B  = -99.94 Failed ()_x000D_\nTX_POWER_LANE_A  TX_POWER_LANE_A  = -102.72 Failed ()_x000D_\nMODULE_ALARM_STATUS   RX2 Power Low Alarm Alarm,TX4 Bias Low Alarm Alarm,TX2 Power Low Alarm Alarm,TX3 Bias Low Alarm Alarm,RX1 Power Low Alarm Alarm,TX1 Power Low Alarm Alarm,RX4 Power Low Alarm Alarm,TX1 Bias Low Alarm Alarm,RX3 Power Low Alarm Alarm,TX4 Power Low Alarm Alarm,TX3 Power Low Alarm Alarm,TX2 Bias Low Alarm Alarm = FAIL Failed ()_x000D_\nERROR_COUNT d  Loss of lock,lane:d = -1 Failed ()_x000D_\nERROR_COUNT c  Loss of lock,lane:c = -1 Failed ()_x000D_\nERROR_COUNT b  Loss of lock,lane:b = -1 Failed ()_x000D_\nERROR_COUNT a  Loss of lock,lane:a = -1 Failed ()_x000D_\nDDM_RX_LANE_D_DELTA  DDM_RX_LANE_D_DELTA  = 937.02 Failed ()_x000D_\nDDM_RX_LANE_C_DELTA  DDM_RX_LANE_C_DELTA  = 937.02 Failed ()_x000D_\nDDM_RX_LANE_B_DELTA  DDM_RX_LANE_B_DELTA  = 937.02 Failed ()_x000D_\nDDM_RX_LANE_A_DELTA  DDM_RX_LANE_A_DELTA  = 937.02 Failed ()_x000D_\nBER d   = -1.0 Failed ()_x000D_\nBER c   = -1.0 Failed ()_x000D_\nBER b   = -1.0 Failed ()_x000D_\nBER a   = -1.0 Failed ()', 'wlongsid']}
29/Mar/2022 07:30:48 PM - extract_data_excel - DEBUG - FA-0533669{'DTY253000N0': ['Send for Root Cause - Normal', 'Send to DNI for RCA to confirm the known shim failure and rework shim if it is the same issue. \n\nPassed', 'wlongsid']}
29/Mar/2022 07:30:48 PM - extract_data_excel - DEBUG - FA-0534430{'DTY2536009A': ['Send for Root Cause - Normal', 'Send for root cause - SN outside the current quickscreen SN list but could still be exposed to the shim issue.\n\n\nERROR_COUNT_LANE_all  Lane all  = -1 Failed ()\nBER_LANE_all  Lane all  = -1 Failed ()', 'wlongsid']}
29/Mar/2022 07:30:48 PM - extract_data_excel - INFO - FA Case number >>> 16 Cases
29/Mar/2022 07:30:48 PM - dispose_affected_items - INFO - FA Case >>> FA-0527161
29/Mar/2022 07:30:58 PM - dispose_affected_items - DEBUG - 2
29/Mar/2022 07:30:58 PM - dispose_affected_items - INFO - Exact rows >>> 2 Rows number >>> 4
29/Mar/2022 07:30:58 PM - dispose_affected_items - DEBUG - <selenium.webdriver.remote.webelement.WebElement (session="d7f1be1a5ea0c6d470fe2bd7ed7458bf", element="75fa9fcb-83fc-418f-a0c3-c30526157b6d")>
29/Mar/2022 07:30:58 PM - dispose_affected_items - INFO - FA FLAG >>> Yes
29/Mar/2022 07:30:58 PM - dispose_affected_items - INFO - Serial Number >>> DTS2416B420
29/Mar/2022 07:30:58 PM - dispose_affected_items - INFO - Dispose to >>> Send for Root Cause - Normal
29/Mar/2022 07:31:00 PM - dispose_affected_items - DEBUG - <selenium.webdriver.remote.webelement.WebElement (session="d7f1be1a5ea0c6d470fe2bd7ed7458bf", element="efa76edd-dcdc-4386-968c-1fb7ef6435d3")>
29/Mar/2022 07:31:00 PM - dispose_affected_items - INFO - FA FLAG >>>  
29/Mar/2022 07:31:00 PM - dispose_affected_items - INFO - Serial Number >>> DTS2416B420
29/Mar/2022 07:31:00 PM - dispose_affected_items - INFO - Dispose to >>> Send for Root Cause - Normal
29/Mar/2022 07:31:24 PM - update_sre_symtom - DEBUG - No. Of window handles2: 2 >>>  ['CDwindow-78BFDB462F6C63C8D5C150E2D92F212B', 'CDwindow-7207F7F7048FBFCD8FDF14B4ECA84F09']
29/Mar/2022 07:31:26 PM - update_sre_symtom - DEBUG - No. Of window handles2: 2 >>>  ['CDwindow-78BFDB462F6C63C8D5C150E2D92F212B', 'CDwindow-F58DCBBC0E572571BF5B93462F7422A5']
29/Mar/2022 07:31:27 PM - update_sre_symtom - DEBUG - Window Title: Update Final SRE Symptom Code Category and Sub Category for Standard FA Case >>> ['CDwindow-78BFDB462F6C63C8D5C150E2D92F212B', 'CDwindow-F58DCBBC0E572571BF5B93462F7422A5']
29/Mar/2022 07:31:32 PM - update_sre_symtom - DEBUG - DTS2416B420 : Pluggable failed
29/Mar/2022 07:31:43 PM - move_case - INFO - FA Case >>> FA-0527161
29/Mar/2022 07:31:51 PM - move_case - DEBUG - No. Of window handles2: 2 >>>  ['CDwindow-78BFDB462F6C63C8D5C150E2D92F212B', 'CDwindow-D5FB3F75C341D355EFBE7F7E3CC0946F']
29/Mar/2022 07:31:52 PM - move_case - DEBUG - Change Status Window: Change Status >>> ['CDwindow-78BFDB462F6C63C8D5C150E2D92F212B', 'CDwindow-D5FB3F75C341D355EFBE7F7E3CC0946F']
29/Mar/2022 07:32:03 PM - dispose_affected_items - INFO - FA Case >>> FA-0528914
29/Mar/2022 07:32:11 PM - dispose_affected_items - DEBUG - 2
29/Mar/2022 07:32:11 PM - dispose_affected_items - INFO - Exact rows >>> 2 Rows number >>> 4
29/Mar/2022 07:32:11 PM - dispose_affected_items - DEBUG - <selenium.webdriver.remote.webelement.WebElement (session="d7f1be1a5ea0c6d470fe2bd7ed7458bf", element="58b9071e-6b57-493a-acab-2045d4e24663")>
29/Mar/2022 07:32:11 PM - dispose_affected_items - INFO - FA FLAG >>>  
29/Mar/2022 07:32:11 PM - dispose_affected_items - INFO - Serial Number >>> DTY253705YA
29/Mar/2022 07:32:11 PM - dispose_affected_items - INFO - Dispose to >>> Send for Root Cause - Normal
29/Mar/2022 07:32:21 PM - dispose_affected_items - DEBUG - <selenium.webdriver.remote.webelement.WebElement (session="d7f1be1a5ea0c6d470fe2bd7ed7458bf", element="cafcdc47-7fb3-44c2-ac21-31d359db1e04")>
29/Mar/2022 07:32:21 PM - dispose_affected_items - INFO - FA FLAG >>> Yes
29/Mar/2022 07:32:21 PM - dispose_affected_items - INFO - Serial Number >>> DTY253705YA
29/Mar/2022 07:32:21 PM - dispose_affected_items - INFO - Dispose to >>> Send for Root Cause - Normal
29/Mar/2022 07:32:25 PM - dispose_affected_items - WARNING - Wait for against click intercepted !!!
29/Mar/2022 07:32:41 PM - update_sre_symtom - DEBUG - No. Of window handles2: 2 >>>  ['CDwindow-78BFDB462F6C63C8D5C150E2D92F212B', 'CDwindow-F019C9216E86C238176D1DFE94504229']
29/Mar/2022 07:32:41 PM - update_sre_symtom - DEBUG - Window Title: Update Final SRE Symptom Code Category and Sub Category for Standard FA Case >>> ['CDwindow-78BFDB462F6C63C8D5C150E2D92F212B', 'CDwindow-F019C9216E86C238176D1DFE94504229']
