31/May/2022 09:33:37 AM - login - INFO - Wait for two-factor authentication render:1
31/May/2022 09:33:38 AM - login - INFO - Wait for two-factor authentication render:2
31/May/2022 09:33:39 AM - login - INFO - Wait for two-factor authentication render:3
31/May/2022 09:33:40 AM - login - INFO - Wait for two-factor authentication render:4
31/May/2022 09:33:40 AM - <module> - CRITICAL - Traceback (most recent call last):
  File "C:\Users\wlongsid\OneDrive - Cisco\Documents\DEV\PY\qit_disposition_affected_items\main.py", line 1232, in <module>
    run.main()
  File "C:\Users\wlongsid\OneDrive - Cisco\Documents\DEV\PY\qit_disposition_affected_items\main.py", line 1203, in main
    self.login()
  File "C:\Users\wlongsid\OneDrive - Cisco\Documents\DEV\PY\qit_disposition_affected_items\main.py", line 97, in login
    sleep(1)
KeyboardInterrupt

